MZ,Rtstart,Rtstop,qvalue,pH_ju_apple
211.0063431,8.035934896,8.635934896,6.72586E-23,1.09801E-13
258.1783577,11.94352361,12.54352361,2.06737E-16,1.24345E-13
279.1569028,11.94410622,12.54410622,2.08363E-16,1.23457E-13
257.1751057,11.95457578,12.55457578,2.08363E-16,1.26787E-13
347.1439087,11.93898752,12.53898752,2.55104E-13,7.64944E-13
239.1645694,11.94533829,12.54533829,9.49394E-08,3.9272E-09
273.0427656,7.010809892,7.610809892,2.3953E-06,3.91057E-06
179.1072288,9.495097924,10.09509792,7.30185E-06,2.01061E-07
397.2216495,12.59187565,13.19187565,0.000325041,0.001135511
398.2251613,12.58042204,13.18042204,0.001156343,0.003612574
223.0968708,9.496141273,10.09614127,0.00580968,6.34364E-05
352.9781977,0.747525388,1.347525388,0.084257004,0.003226622
480.4440426,0.789528236,1.389528236,0.167479727,0.001091217
130.0225143,0.828153051,1.428153051,0.167479727,0.000441954
255.1594025,11.33887949,11.93887949,0.249412367,0.004061471
457.3310362,13.23051831,13.83051831,0.300609074,0.006835437
216.980565,4.290826337,4.890826337,0.365298258,0.087162936
245.0118616,5.313705453,5.913705453,0.365298258,0.018766587
525.3182418,13.22229033,13.82229033,0.53812476,0.012276538
201.0743213,0.79606078,1.39606078,0.59865787,0.002952187
213.5331438,0.823227692,1.423227692,0.614756465,0.048481478
691.8346069,0.781159277,1.381159277,0.639738338,0.005355955
286.969276,1.166121908,1.766121908,0.71645885,0.031316909
300.0174888,5.018512311,5.618512311,0.965202259,0.019568103
430.9602154,0.703315007,1.303315007,0.965202259,0.005667634
480.4347178,0.758311564,1.358311564,0.965202259,0.193503773
664.6475779,14.54113611,15.14113611,0.965202259,0.32840196
134.5014035,0.742712123,1.342712123,0.999993573,0.043967923
664.687626,27.78910458,28.38910458,0.999993573,0.010550606
480.5039588,0.785755994,1.385755994,0.999993573,0.101164429
125.8661329,27.75228383,28.35228383,0.999993573,0.008216702
348.9729004,0.7236966,1.3236966,0.999993573,0.030090494
142.941958,0.725830568,1.325830568,0.999993573,0.234150285
154.9983932,0.815283792,1.415283792,0.999993573,0.127889855
166.1741188,14.58418104,15.18418104,0.999993573,0.795639466
191.6483094,0.729643205,1.329643205,0.999993573,0.993310514
264.9971746,1.145162875,1.745162875,0.999993573,0.221369425
352.9703737,0.735532377,1.335532377,0.999993573,0.464255406
775.4844968,14.61366905,15.21366905,0.999993573,0.724616671
159.0659771,5.206355386,5.806355386,0.999993573,0.017275193
480.4827828,0.788421097,1.388421097,0.999993573,0.027067583
664.0082397,27.74222495,28.34222495,0.999993573,0.020815639
239.3469233,0.748415288,1.348415288,0.999993573,0.296870881
691.8465615,0.72926768,1.32926768,0.999993573,0.051623809
340.4650879,0.770805163,1.370805163,0.999993573,0.141307331
345.9979331,0.92407208,1.52407208,0.999993573,0.796628955
966.5628136,27.76276565,28.36276565,0.999993573,0.017095808
132.1689973,0.740471489,1.340471489,0.999993573,0.029077977
347.0017066,0.914231601,1.514231601,0.999993573,0.534098545
250.8599984,0.785826793,1.385826793,0.999993573,0.304699316
200.8677354,0.76796723,1.36796723,0.999993573,0.066417141
854.1608222,0.789910659,1.389910659,0.999993573,0.087398758
387.1908638,11.95150845,12.55150845,0.999993573,0.033895147
500.8512843,27.94230376,28.54230376,0.999993573,0.611943316
683.9713384,0.8030035,1.4030035,0.999993573,0.1031826
854.8544312,0.726836885,1.326836885,0.999993573,0.033704328
571.6957551,0.743808653,1.343808653,0.999993573,0.997166968
352.8960075,0.813473944,1.413473944,0.999993573,0.021677185
213.5564905,0.729769783,1.329769783,0.999993573,0.155724427
398.2227437,10.89701748,11.49701748,0.999993573,0.605994901
281.0350898,1.174408841,1.774408841,0.999993573,0.130365807
199.8583687,0.743014429,1.343014429,0.999993573,0.063646159
194.045445,4.170920647,4.770920647,0.999993573,0.172009903
389.2897324,13.05469119,13.65469119,0.999993573,0.028231294
570.8351715,27.93850034,28.53850034,0.999993573,0.289175761
118.3119578,27.76085911,28.36085911,0.999993573,0.146722541
192.9450722,10.21533629,10.81533629,0.999993573,0.361139744
506.7065125,0.725772806,1.325772806,0.999993573,0.025197679
332.8428065,27.96745621,28.56745621,0.999993573,0.025498605
120.0957184,0.727845648,1.327845648,0.999993573,0.327569279
128.6317438,4.913327019,5.513327019,0.999993573,0.951477641
330.2356921,11.94903218,12.54903218,0.999993573,0.032454979
467.9420885,0.764846958,1.364846958,0.999993573,0.146995406
191.1111143,14.76418967,15.36418967,0.999993573,0.223936135
307.4886475,0.715315916,1.315315916,0.999993573,0.902098964
265.9497951,27.98194318,28.58194318,0.999993573,0.083726679
807.5142821,7.393302418,7.993302418,0.999993573,0.045425677
664.2458848,0.754544678,1.354544678,0.999993573,0.049991701
329.2322932,11.94907817,12.54907817,0.999993573,0.031559966
691.8148193,0.726709338,1.326709338,0.999993573,0.23276956
480.4896957,0.734191578,1.334191578,0.999993573,0.260160263
127.0373909,27.75761808,28.35761808,0.999993573,0.060129576
281.2476764,14.84787768,15.44787768,0.999993573,0.89837104
953.5335291,27.70426212,28.30426212,0.999993573,0.038682654
683.9654006,0.748056053,1.348056053,0.999993573,0.242907858
502.8479669,27.94112261,28.54112261,0.999993573,0.998556582
340.4763013,0.738693167,1.338693167,0.999993573,0.524266414
279.1505007,14.62774867,15.22774867,0.999993573,0.564939568
316.8579865,0.713173607,1.313173607,0.999993573,0.678182139
692.4323634,0.72241246,1.32241246,0.999993573,0.103673343
185.8987792,6.140837766,6.740837766,0.999993573,0.177765168
378.8287638,27.93819216,28.53819216,0.999993573,0.464287013
191.617486,0.727579428,1.327579428,0.999993573,0.549985628
870.6129931,0.727463569,1.327463569,0.999993573,0.328542215
104.9288993,27.89306453,28.49306453,0.999993573,0.316859437
340.5159279,14.5905982,15.1905982,0.999993573,0.422807357
414.9866147,0.726691813,1.326691813,0.999993573,0.042003847
505.3264128,10.67402635,11.27402635,0.999993573,0.984981855
503.3190647,10.64012081,11.24012081,0.999993573,0.994725818
580.8637301,27.93725436,28.53725436,0.999993573,0.572977278
474.9778749,0.741658336,1.341658336,0.999993573,0.33689696
361.2219409,6.975656912,7.575656912,0.999993573,0.042673857
537.8984627,27.98362708,28.58362708,0.999993573,0.371960357
664.0059961,0.735349943,1.335349943,0.999993573,0.893112817
149.0311966,0.771874789,1.371874789,0.999993573,0.746923777
256.1160058,1.365979629,1.965979629,0.999993573,0.193953392
307.4464852,0.736021573,1.336021573,0.999993573,0.513553845
571.686088,0.787983044,1.387983044,0.999993573,0.729308834
213.7138566,0.747481509,1.347481509,0.999993573,0.093418371
401.1908125,14.79487177,15.39487177,0.999993573,0.098610481
273.9940577,0.761715364,1.361715364,0.999993573,0.451116657
590.3345047,13.97634277,14.57634277,0.999993573,0.270311769
102.3279266,0.728927198,1.328927198,0.999993573,0.090979099
239.3919813,0.720983151,1.320983151,0.999993573,0.662706307
113.9888495,27.76340245,28.36340245,0.999993573,0.07267787
664.5200733,27.75354487,28.35354487,0.999993573,0.068039606
397.2196297,11.95003111,12.55003111,0.999993573,0.063785977
176.9720689,1.636391638,2.236391638,0.999993573,0.112759771
301.2374994,14.76702807,15.36702807,0.999993573,0.384127123
480.8566465,0.720914095,1.320914095,0.999993573,0.102540244
854.0047684,0.726674287,1.326674287,0.999993573,0.67113792
268.9086627,0.950522886,1.550522886,0.999993573,0.788096847
885.5467375,27.68877087,28.28877087,0.999993573,0.301298543
723.5443261,7.389978171,7.989978171,0.999993573,0.264268995
189.0399077,0.858984785,1.458984785,0.999993573,0.807002742
636.8259693,27.94225989,28.54225989,0.999993573,0.310475091
346.1341508,14.64091595,15.24091595,0.999993573,0.746975682
772.4745903,14.61419089,15.21419089,0.999993573,0.863380477
664.1173059,0.752732276,1.352732276,0.999993573,0.994573261
515.3377454,14.76693885,15.36693885,0.999993573,0.804832971
160.0611369,0.833250459,1.433250459,0.999993573,0.052399625
246.9360032,0.63507464,1.23507464,0.999993573,0.32038121
526.8933625,0.73347621,1.33347621,0.999993573,0.114498759
323.2191144,14.76030384,15.36030384,0.999993573,0.126199468
398.2228011,11.94899542,12.54899542,0.999993573,0.082628433
504.3229591,10.65538388,11.25538388,0.999993573,0.985877907
547.8779907,0.711822965,1.311822965,0.999993573,0.067882517
673.3774132,0.737937816,1.337937816,0.999993573,0.105102843
172.9557502,0.749274975,1.349274975,0.999993573,0.423275431
997.488247,27.75230682,28.35230682,0.999993573,0.087318198
239.5951334,0.729992479,1.329992479,0.999993573,0.076959905
307.7473145,0.74744452,1.34744452,0.999993573,0.072416482
189.0108985,4.905023133,5.505023133,0.999993573,0.573366729
549.713623,0.726568051,1.326568051,0.999993573,0.323043883
307.4244496,0.737937816,1.337937816,0.999993573,0.315286695
664.6943376,0.728715117,1.328715117,0.999993573,0.079265482
332.9205726,28.06942693,28.66942693,0.999993573,0.759927192
180.9776959,6.142739545,6.742739545,0.999993573,0.399881435
348.9844297,0.732737201,1.332737201,0.999993573,0.062190995
